{
  "formatVersion": 1,
  "database": {
    "version": 2,
    "identityHash": "a1dc3476fa8157d708dce1e644e211bb",
    "entities": [
      {
        "tableName": "notes",
        "createSql": "CREATE TABLE IF NOT EXISTS `${TABLE_NAME}` (`id` TEXT NOT NULL, `title` TEXT NOT NULL, `text` TEXT NOT NULL, `version` INTEGER NOT NULL, `andNowForSomethingCompletelyDifferent` TEXT, PRIMARY KEY(`id`))",
        "fields": [
          {
            "fieldPath": "id",
            "columnName": "id",
            "affinity": "TEXT",
            "notNull": true
          },
          {
            "fieldPath": "title",
            "columnName": "title",
            "affinity": "TEXT",
            "notNull": true
          },
          {
            "fieldPath": "text",
            "columnName": "text",
            "affinity": "TEXT",
            "notNull": true
          },
          {
            "fieldPath": "version",
            "columnName": "version",
            "affinity": "INTEGER",
            "notNull": true
          },
          {
            "fieldPath": "andNowForSomethingCompletelyDifferent",
            "columnName": "andNowForSomethingCompletelyDifferent",
            "affinity": "TEXT",
            "notNull": false
          }
        ],
        "primaryKey": {
          "columnNames": [
            "id"
          ],
          "autoGenerate": false
        },
        "indices": [],
        "foreignKeys": []
      }
    ],
    "views": [],
    "setupQueries": [
      "CREATE TABLE IF NOT EXISTS room_master_table (id INTEGER PRIMARY KEY,identity_hash TEXT)",
      "INSERT OR REPLACE INTO room_master_table (id,identity_hash) VALUES(42, 'a1dc3476fa8157d708dce1e644e211bb')"
    ]
  }
}